triel_test/xml/func.vcd
$date
  Fri Sep 20 21:26:32 2019
$end
$version
  GHDL v0
$end
$timescale
  1 fs
$end
$scope module standard $end
$upscope $end
$scope module std_logic_1164 $end
$upscope $end
$scope module numeric_std $end
$upscope $end
$scope module adder $end
$var reg 1 ! clk $end
$var reg 20 " a[19:0] $end
$var reg 20 # b[19:0] $end
$var reg 20 $ x[19:0] $end
$var reg 1 % test $end
$upscope $end
$enddefinitions $end
#0
0!
bUUUUUUUUUUUUUUUUUUUU "
bUUUUUUUUUUUUUUUUUUUU #
bXXXXXXXXXXXXXXXXXXXX $
U%
#5
1!
#10
0!
#15
1!
#20
0!
#25
1!
#30
0!
#35
1!
#40
0!
#45
1!
#50
0!
#55
1!
#60
0!
#65
1!
#70
0!
#75
1!
#80
0!
#85
1!
#90
0!
#95
1!
#100
0!
#105
1!
#110
0!
#115
1!
#120
0!
#125
1!
#130
0!
#135
1!
#140
0!
#145
1!
#150
0!
#155
1!
#160
0!
#165
1!
#170
0!
#175
1!
#180
0!
#185
1!
#190
0!
#195
1!
#200
0!
b00000000000000000111 "
b00000000000000000111 #
b00000000000000001110 $
1%
#205
1!
#210
0!
#215
1!
#220
0!
#225
1!
#230
0!
#235
1!
#240
0!
#245
1!
#250
0!
#255
1!
#260
0!
#265
1!
#270
0!
#275
1!
#280
0!
#285
1!
#290
0!
#295
1!
#300
0!
#305
1!
#310
0!
#315
1!
#320
0!
#325
1!
#330
0!
#335
1!
#340
0!
#345
1!
#350
0!
#355
1!
#360
0!
#365
1!
#370
0!
#375
1!
#380
0!
#385
1!
#390
0!
#395
1!
#400
#401
0!
#406
1!
#411
0!
#416
1!
#421
0!
#426
1!
#431
0!
#436
1!
#441
0!
#446
1!
#451
0!
#456
1!
#461
0!
#466
1!
#471
0!
#476
1!
#481
0!
#486
1!
#491
0!
#496
1!
#501
0!
#506
1!
#511
0!
#516
1!
#521
0!
#526
1!
#531
0!
#536
1!
#541
0!
#546
1!
#551
0!
#556
1!
#561
0!
#566
1!
#571
0!
#576
1!
#581
0!
#586
1!
#591
0!
#596
1!
#601
0!
b00000000000000000101 "
b00000000000000001010 #
b00000000000000001111 $
#606
1!
#611
0!
#616
1!
#621
0!
#626
1!
#631
0!
#636
1!
#641
0!
#646
1!
#651
0!
#656
1!
#661
0!
#666
1!
#671
0!
#676
1!
#681
0!
#686
1!
#691
0!
#696
1!
#701
0!
#706
1!
#711
0!
#716
1!
#721
0!
#726
1!
#731
0!
#736
1!
#741
0!
#746
1!
#751
0!
#756
1!
#761
0!
#766
1!
#771
0!
#776
1!
#781
0!
#786
1!
#791
0!
#796
1!
#801
#802
0!
#807
1!
#812
0!
#817
1!
#822
0!
#827
1!
#832
0!
#837
1!
#842
0!
#847
1!
#852
0!
#857
1!
#862
0!
#867
1!
#872
0!
#877
1!
#882
0!
#887
1!
#892
0!
#897
1!
#902
0!
#907
1!
#912
0!
#917
1!
#922
0!
#927
1!
#932
0!
#937
1!
#942
0!
#947
1!
#952
0!
#957
1!
#962
0!
#967
1!
#972
0!
#977
1!
#982
0!
#987
1!
#992
0!
#997
1!
#1002
0!
b00000000000000000001 #
b00000000000000000110 $
#1007
1!
#1012
0!
#1017
1!
#1022
0!
#1027
1!
#1032
0!
#1037
1!
#1042
0!
#1047
1!
#1052
0!
#1057
1!
#1062
0!
#1067
1!
#1072
0!
#1077
1!
#1082
0!
#1087
1!
#1092
0!
#1097
1!
#1102
0!
#1107
1!
#1112
0!
#1117
1!
#1122
0!
#1127
1!
#1132
0!
#1137
1!
#1142
0!
#1147
1!
#1152
0!
#1157
1!
#1162
0!
#1167
1!
#1172
0!
#1177
1!
#1182
0!
#1187
1!
#1192
0!
#1197
1!
#1202
0!
b00000000000000000001 "
b00000000000000000100 #
b00000000000000000101 $
#1207
1!
#1212
0!
#1217
1!
#1222
0!
#1227
1!
#1232
0!
#1237
1!
#1242
0!
#1247
1!
#1252
0!
#1257
1!
#1262
0!
#1267
1!
#1272
0!
#1277
1!
#1282
0!
#1287
1!
#1292
0!
#1297
1!
#1302
0!
#1307
1!
#1312
0!
#1317
1!
#1322
0!
#1327
1!
#1332
0!
#1337
1!
#1342
0!
#1347
1!
#1352
0!
#1357
1!
#1362
0!
#1367
1!
#1372
0!
#1377
1!
#1382
0!
#1387
1!
#1392
0!
#1397
1!
#1402
0!
b00000000000000000000 #
b00000000000000000001 $
#1407
1!
#1412
0!
#1417
1!
#1422
0!
#1427
1!
#1432
0!
#1437
1!
#1442
0!
#1447
1!
#1452
0!
#1457
1!
#1462
0!
#1467
1!
#1472
0!
#1477
1!
#1482
0!
#1487
1!
#1492
0!
#1497
1!
#1502
0!
#1507
1!
#1512
0!
#1517
1!
#1522
0!
#1527
1!
#1532
0!
#1537
1!
#1542
0!
#1547
1!
#1552
0!
#1557
1!
#1562
0!
#1567
1!
#1572
0!
#1577
1!
#1582
0!
#1587
1!
#1592
0!
#1597
1!
#1602
0!
#1607
1!
#1612
0!
#1617
1!
#1622
0!
#1627
1!
#1632
0!
#1637
1!
#1642
0!
#1647
1!
#1652
0!
#1657
1!
#1662
0!
#1667
1!
#1672
0!
#1677
1!
#1682
0!
#1687
1!
#1692
0!
#1697
1!
#1702
0!
#1707
1!
#1712
0!
#1717
1!
#1722
0!
#1727
1!
#1732
0!
#1737
1!
#1742
0!
#1747
1!
#1752
0!
#1757
1!
#1762
0!
#1767
1!
#1772
0!
#1777
1!
#1782
0!
#1787
1!
#1792
0!
#1797
1!
#1802
0!
b00000000000000000000 "
b00000000000000000101 #
b00000000000000000101 $
0%
#1807
1!
#1812
0!
#1817
1!
#1822
0!
#1827
1!
#1832
0!
#1837
1!
#1842
0!
#1847
1!
#1852
0!
#1857
1!
#1862
0!
#1867
1!
#1872
0!
#1877
1!
#1882
0!
#1887
1!
#1892
0!
#1897
1!
#1902
0!
#1907
1!
#1912
0!
#1917
1!
#1922
0!
#1927
1!
#1932
0!
#1937
1!
#1942
0!
#1947
1!
#1952
0!
#1957
1!
#1962
0!
#1967
1!
#1972
0!
#1977
1!
#1982
0!
#1987
1!
#1992
0!
#1997
1!
#2002
0!
b00000000000000000011 "
b00000000000000000000 #
b00000000000000000011 $
1%
#2007
1!
#2012
0!
#2017
1!
#2022
0!
#2027
1!
#2032
0!
#2037
1!
#2042
0!
#2047
1!
#2052
0!
#2057
1!
#2062
0!
#2067
1!
#2072
0!
#2077
1!
#2082
0!
#2087
1!
#2092
0!
#2097
1!
#2102
0!
#2107
1!
#2112
0!
#2117
1!
#2122
0!
#2127
1!
#2132
0!
#2137
1!
#2142
0!
#2147
1!
#2152
0!
#2157
1!
#2162
0!
#2167
1!
#2172
0!
#2177
1!
#2182
0!
#2187
1!
#2192
0!
#2197
1!
#2202
0!
b00000000000000000010 "
b00000000000000000101 #
b00000000000000000111 $
0%
#2207
1!
#2212
0!
#2217
1!
#2222
0!
#2227
1!
#2232
0!
#2237
1!
#2242
0!
#2247
1!
#2252
0!
#2257
1!
#2262
0!
#2267
1!
#2272
0!
#2277
1!
#2282
0!
#2287
1!
#2292
0!
#2297
1!
#2302
0!
#2307
1!
#2312
0!
#2317
1!
#2322
0!
#2327
1!
#2332
0!
#2337
1!
#2342
0!
#2347
1!
#2352
0!
#2357
1!
#2362
0!
#2367
1!
#2372
0!
#2377
1!
#2382
0!
#2387
1!
#2392
0!
#2397
1!
#2402
0!
b00000000000000000010 #
b00000000000000000100 $
#2407
1!
#2412
0!
#2417
1!
#2422
0!
#2427
1!
#2432
0!
#2437
1!
#2442
0!
#2447
1!
#2452
0!
#2457
1!
#2462
0!
#2467
1!
#2472
0!
#2477
1!
#2482
0!
#2487
1!
#2492
0!
#2497
1!
#2502
0!
#2507
1!
#2512
0!
#2517
1!
#2522
0!
#2527
1!
#2532
0!
#2537
1!
#2542
0!
#2547
1!
#2552
0!
#2557
1!
#2562
0!
#2567
1!
#2572
0!
#2577
1!
#2582
0!
#2587
1!
#2592
0!
#2597
1!
#2602
0!
b00000000000000000000 "
b00000000000000000010 $
#2607
1!
#2612
0!
#2617
1!
#2622
0!
#2627
1!
#2632
0!
#2637
1!
#2642
0!
#2647
1!
#2652
0!
#2657
1!
#2662
0!
#2667
1!
#2672
0!
#2677
1!
#2682
0!
#2687
1!
#2692
0!
#2697
1!
#2702
0!
#2707
1!
#2712
0!
#2717
1!
#2722
0!
#2727
1!
#2732
0!
#2737
1!
#2742
0!
#2747
1!
#2752
0!
#2757
1!
#2762
0!
#2767
1!
#2772
0!
#2777
1!
#2782
0!
#2787
1!
#2792
0!
#2797
1!
#2802
0!
b00000000000000000101 "
b00000000000000000000 #
b00000000000000000101 $
1%
